{"meta": {"limit": 10, "next": "/api/user/measurement/?limit=10&offset=10&order_by=-timestamp&uuid=room-5-light-10-gain&format=json", "offset": 0, "previous": null, "total_count": 2093}, "objects": [{"bid": 0, "id": "863828", "resource_uri": "/api/user/measurement/863828/", "timestamp": "2013-03-26T12:11:14+00:00", "uuid": "room-5-light-10-gain", "val": 1.0}, {"bid": 1, "id": "863817", "resource_uri": "/api/user/measurement/863817/", "timestamp": "2013-03-26T12:11:13+00:00", "uuid": "room-5-light-10-gain", "val": 1.0}, {"bid": 1, "id": "863062", "resource_uri": "/api/user/measurement/863062/", "timestamp": "2013-03-26T12:11:11+00:00", "uuid": "room-5-light-10-gain", "val": 1.0}, {"bid": 0, "id": "862931", "resource_uri": "/api/user/measurement/862931/", "timestamp": "2013-03-26T12:11:10+00:00", "uuid": "room-5-light-10-gain", "val": 1.0}, {"bid": 0, "id": "862165", "resource_uri": "/api/user/measurement/862165/", "timestamp": "2013-03-26T12:10:58+00:00", "uuid": "room-5-light-10-gain", "val": 1.0}, {"bid": 1, "id": "862176", "resource_uri": "/api/user/measurement/862176/", "timestamp": "2013-03-26T12:10:58+00:00", "uuid": "room-5-light-10-gain", "val": 1.0}, {"bid": 0, "id": "861314", "resource_uri": "/api/user/measurement/861314/", "timestamp": "2013-03-26T12:10:56+00:00", "uuid": "room-5-light-10-gain", "val": 1.0}, {"bid": 1, "id": "861375", "resource_uri": "/api/user/measurement/861375/", "timestamp": "2013-03-26T12:10:56+00:00", "uuid": "room-5-light-10-gain", "val": 1.0}, {"bid": 0, "id": "860509", "resource_uri": "/api/user/measurement/860509/", "timestamp": "2013-03-26T12:10:43+00:00", "uuid": "room-5-light-10-gain", "val": 1.0}, {"bid": 1, "id": "860528", "resource_uri": "/api/user/measurement/860528/", "timestamp": "2013-03-26T12:10:43+00:00", "uuid": "room-5-light-10-gain", "val": 1.0}]}